116640 1924 354
276083 24461 443
620807 34672 470
223623 600192 470
812648 556829 509
301971 24168 443
133242 235958 443
344794 887062 525
231790 715310 509
816928 357111 509
135981 262274 443
172509 977497 525
720896 947863 525
283420 700580 509
521706 193576 470
660605 235356 509
399079 243196 441
934691 18372 525
932125 977034 507
882209 104037 525
444670 262549 449
105362 504102 449
739264 470639 509
346590 247355 441
741037 131758 509
572601 472158 470
258662 773125 509
14179 995300 525
998935 573742 525
775038 516885 509
854589 523295 525
45082 783071 509
955051 896544 507
911015 169698 525
850309 558515 525
184364 598187 470
371812 42576 443
535116 53166 470
487816 551691 470
490184 960663 525
69119 104041 351
157909 930331 525
122674 983819 525
165310 699254 509
35497 847734 525
330990 490783 449
741315 639245 504
736058 361470 509
424764 482192 444
668586 380569 509
617616 770946 509
445253 223225 449
484659 714298 509
575022 380635 470
436894 247523 449
101361 989460 525
223062 876722 525
214145 702522 509
63556 446265 449
270313 467979 449
566905 646529 509
311136 455921 449
365799 254561 441
191313 777296 509
585801 2220 470
62854 130027 354
311628 561386 470
365899 999177 525
16215 508847 449
956358 790628 525
144327 270413 443
379012 291274 441
110682 739800 509
481727 590874 470
732726 496751 509
656203 171183 509
731274 986937 525
511139 143550 449
923642 37104 525
672569 812199 504
346656 449627 449
353041 302550 441
837903 394920 525
401087 444535 449
202865 260157 443
103438 231121 443
357481 913308 525
34438 688550 509
240020 643964 509
88612 915610 525
322180 885603 525
995844 655999 525
766030 203659 509
658787 784843 504
161674 287247 443
156051 199086 383
300757 928404 525
566824 43382 470
171599 799168 509
4045 785157 509
160977 57398 383
973445 188918 525
143968 777458 509
642595 229039 509
113030 386839 443
989949 804173 525
847695 287713 525
22806 612172 470
266066 479144 449
472721 835578 509
971140 778989 525
309556 753282 509
488093 418491 444
614964 488914 470
525545 842572 525
68834 356973 443
462146 113087 449
864797 605289 525
830643 141072 509
829510 811716 450
995900 706141 525
921537 245871 525
6892 79579 351
687659 960412 525
795686 300692 509
747048 474951 509
148150 338298 443
157387 235454 443
808798 993607 525
887305 738626 525
352671 389232 436
82049 879395 525
80699 711790 509
716741 362564 509
152930 953920 525
102106 653704 509
405654 562022 470
772278 981775 525
378421 836294 509
809850 728292 468
47512 189959 383
1785 461912 449
74795 562682 470
242981 4840 443
511582 172751 449
446356 80901 449
842574 160525 525
306853 459365 449
583225 603996 434
178619 941912 525
282909 22118 443
422041 706932 509
1271 8382 262
649299 341322 509
891829 158938 525
870448 329447 525
807450 493620 509
312132 202929 443
236709 951638 525
440865 275812 449
201780 325777 443
803347 61858 509
755265 26225 509
550552 625951 447
262192 647371 509
369937 691237 509
499200 885682 525
522951 469689 470
752492 612915 509
49473 551865 470
164060 104822 383
551860 68676 470
848690 920976 476
259968 857747 525
768531 378067 509
900168 859937 445
927356 5606 525
430271 229542 449
116766 726687 509
579403 554839 421
754224 503780 509
524992 510638 470
478423 291759 449
82206 925120 525
374409 475276 449
84984 871086 525
721291 237061 509
612274 470743 470
597420 486617 470
829314 231474 509
767244 860535 525
351116 712562 509
636809 124189 509
901574 59823 525
862925 573766 525
478545 286533 449
747085 17600 509
105279 921288 525
219197 951650 525
605293 544770 452
338878 922007 525
954292 802567 525
47128 323673 443
991803 12935 525
267599 336866 407
639740 643803 416
315103 926219 525
491260 258795 449
346623 207394 443
692145 799589 504
470178 902949 525
837520 525857 509
382805 512218 470
390930 369104 436
634767 459649 509
870590 389128 525
320887 712967 509
97030 931468 525
921189 517093 525
354698 335291 441
339982 581303 470
317736 248065 407
766703 907521 525
659829 401814 509
568936 320883 470
957105 686203 525
598591 247177 470
646018 88891 509
565822 898745 525
781861 353153 509
226789 638310 509
559202 966805 525
452640 88237 449
65411 205312 383
610603 445679 470
918284 341322 525
929888 897779 476
905052 350725 525
34067 272348 443
945755 37666 525
113499 369969 443
641807 713211 504
190840 141353 383
107889 396551 443
430293 439925 400
339503 453346 449
292129 671116 509
16685 918397 525
956708 937816 507
814655 659014 504
779860 870884 525
693292 901374 525
960109 107225 525
969136 903987 507
545170 67531 470
624615 498251 470
376217 188074 443
73111 5778 340
411315 849343 525
139924 627096 509
